Lab09/singlecycle.vcd
$date
	Mon Apr 24 12:17:59 2023
$end
$version
	Icarus Verilog
$end
$timescale
	1ps
$end
$scope module SingleCycleProcTest_v $end
$var wire 64 ! currentPC [63:0] $end
$var wire 64 " MemtoRegOut [63:0] $end
$var reg 1 # CLK $end
$var reg 1 $ Reset_L $end
$var reg 8 % passed [7:0] $end
$var reg 64 & startPC [63:0] $end
$var reg 16 ' watchdog [15:0] $end
$scope module uut $end
$var wire 1 # CLK $end
$var wire 1 $ resetl $end
$var wire 64 ( startpc [63:0] $end
$var wire 1 ) zero $end
$var wire 1 * uncond_branch $end
$var wire 3 + signop [2:0] $end
$var wire 5 , rn [4:0] $end
$var wire 5 - rm [4:0] $end
$var wire 1 . regwrite $end
$var wire 64 / regoutB [63:0] $end
$var wire 64 0 regoutA [63:0] $end
$var wire 1 1 reg2loc $end
$var wire 5 2 rd [4:0] $end
$var wire 11 3 opcode [10:0] $end
$var wire 64 4 nextpc [63:0] $end
$var wire 1 5 memwrite $end
$var wire 1 6 memread $end
$var wire 1 7 mem2reg $end
$var wire 32 8 instruction [31:0] $end
$var wire 64 9 extimm [63:0] $end
$var wire 1 : branch $end
$var wire 1 ; alusrc $end
$var wire 64 < aluout [63:0] $end
$var wire 4 = aluctrl [3:0] $end
$var wire 64 > ReadData [63:0] $end
$var wire 64 ? MemtoRegOut [63:0] $end
$var wire 64 @ ALUMux [63:0] $end
$var reg 64 A currentpc [63:0] $end
$scope module DataMemory $end
$var wire 1 # Clock $end
$var wire 64 B WriteData [63:0] $end
$var wire 1 5 MemoryWrite $end
$var wire 1 6 MemoryRead $end
$var wire 64 C Address [63:0] $end
$var reg 64 D ReadData [63:0] $end
$scope task initset $end
$var reg 64 E addr [63:0] $end
$var reg 64 F data [63:0] $end
$upscope $end
$upscope $end
$scope module MiniRegisterFile $end
$var wire 64 G BusW [63:0] $end
$var wire 1 # Clk $end
$var wire 5 H RA [4:0] $end
$var wire 5 I RB [4:0] $end
$var wire 5 J RW [4:0] $end
$var wire 1 . RegWr $end
$var wire 64 K BusB [63:0] $end
$var wire 64 L BusA [63:0] $end
$upscope $end
$scope module NextPClogic $end
$var wire 64 M CurrentPC [63:0] $end
$var wire 1 * Uncondbranch $end
$var wire 64 N SignExtImm64 [63:0] $end
$var wire 1 : Branch $end
$var wire 1 ) ALUZero $end
$var reg 64 O NextPC [63:0] $end
$upscope $end
$scope module SignExtender $end
$var wire 26 P Inst26 [25:0] $end
$var wire 3 Q Ctrl [2:0] $end
$var reg 64 R BusImm [63:0] $end
$var reg 1 S extBit $end
$upscope $end
$scope module alu $end
$var wire 64 T BusA [63:0] $end
$var wire 64 U BusB [63:0] $end
$var wire 1 ) Zero $end
$var wire 4 V ALUCtrl [3:0] $end
$var reg 64 W BusW [63:0] $end
$upscope $end
$scope module control $end
$var wire 11 X opcode [10:0] $end
$var reg 4 Y aluop [3:0] $end
$var reg 1 ; alusrc $end
$var reg 1 : branch $end
$var reg 1 7 mem2reg $end
$var reg 1 6 memread $end
$var reg 1 5 memwrite $end
$var reg 1 1 reg2loc $end
$var reg 1 . regwrite $end
$var reg 3 Z signop [2:0] $end
$var reg 1 * uncond_branch $end
$upscope $end
$scope module imem $end
$var wire 64 [ Address [63:0] $end
$var reg 32 \ Data [31:0] $end
$upscope $end
$upscope $end
$scope task allPassed $end
$var reg 8 ] numTests [7:0] $end
$var reg 8 ^ passed [7:0] $end
$upscope $end
$scope task passTest $end
$var reg 64 _ actualOut [63:0] $end
$var reg 64 ` expectedOut [63:0] $end
$var reg 8 a passed [7:0] $end
$var reg 257 b testType [256:0] $end
$upscope $end
$upscope $end
$enddefinitions $end
#0
$dumpvars
bx b
bx a
bx `
bx _
bx ^
bx ]
bx \
bx [
bx Z
bx Y
bx X
bx W
bx V
bx U
bx T
xS
bx R
bx Q
bx P
bx O
bx N
bx M
bx L
bx K
bx J
bx I
bx H
bx G
b0 F
b100000 E
bx D
bx C
bx B
bx A
bx @
bx ?
bx >
bx =
bx <
x;
x:
bx 9
bx 8
x7
x6
x5
bx 4
bx 3
bx 2
x1
bx 0
bx /
x.
bx -
bx ,
bx +
x*
x)
b0 (
b0 '
b0 &
b0 %
1$
0#
bx "
bx !
$end
#60000
1#
#120000
b1 '
0#
#121000
0$
#180000
1#
#240000
b10 '
0#
#243000
b0 @
b0 U
b0 9
b0 N
b0 R
0S
b1 +
b1 Q
b1 Z
b10 =
b10 V
b10 Y
0*
0:
05
16
1.
17
1;
b0x00x ,
b0x00x I
b10000000000001111101001 P
b11111000010 3
b11111000010 X
b11111 -
b11111 H
b1001 2
b1001 J
b100 4
b100 O
b11111000010000000000001111101001 8
b11111000010000000000001111101001 \
b0 !
b0 A
b0 M
b0 [
#245000
1)
b0 <
b0 C
b0 W
b0 0
b0 L
b0 T
#300000
b1 "
b1 ?
b1 G
b1 >
b1 D
1$
1#
#360000
b11 '
0#
#363000
0)
b1000 <
b1000 C
b1000 W
b1000 @
b1000 U
b1000 9
b1000 N
b1000 R
b0x0x0 ,
b0x0x0 I
b10000001000001111101010 P
b1010 2
b1010 J
b1000 4
b1000 O
b11111000010000001000001111101010 8
b11111000010000001000001111101010 \
b100 !
b100 A
b100 M
b100 [
#420000
b1010 "
b1010 ?
b1010 G
b1010 >
b1010 D
1#
#480000
b100 '
0#
#483000
b10000 <
b10000 C
b10000 W
b10000 @
b10000 U
b10000 9
b10000 N
b10000 R
b0x0x1 ,
b0x0x1 I
b10000010000001111101011 P
b1011 2
b1011 J
b1100 4
b1100 O
b11111000010000010000001111101011 8
b11111000010000010000001111101011 \
b1000 !
b1000 A
b1000 M
b1000 [
#540000
b101 "
b101 ?
b101 G
b101 >
b101 D
1#
#600000
b101 '
0#
#603000
b11000 <
b11000 C
b11000 W
b11000 @
b11000 U
b11000 9
b11000 N
b11000 R
b0xx0x ,
b0xx0x I
b10000011000001111101100 P
b1100 2
b1100 J
b10000 4
b10000 O
b11111000010000011000001111101100 8
b11111000010000011000001111101100 \
b1100 !
b1100 A
b1100 M
b1100 [
#660000
b111111111011111010100111110111101010110110111110111011111111 "
b111111111011111010100111110111101010110110111110111011111111 ?
b111111111011111010100111110111101010110110111110111011111111 G
b111111111011111010100111110111101010110110111110111011111111 >
b111111111011111010100111110111101010110110111110111011111111 D
1#
#720000
b110 '
0#
#723000
b100000 <
b100000 C
b100000 W
b100000 @
b100000 U
b100000 9
b100000 N
b100000 R
b0xxxx ,
b0xxxx I
b10000100000001111101101 P
b1101 2
b1101 J
b10100 4
b10100 O
b11111000010000100000001111101101 8
b11111000010000100000001111101101 \
b10000 !
b10000 A
b10000 M
b10000 [
#780000
b0 "
b0 ?
b0 G
b0 >
b0 D
1#
#840000
b111 '
0#
#843000
x)
bx <
bx C
bx W
bx "
bx ?
bx G
bx @
bx U
bx +
bx Q
bx Z
b1 =
b1 V
b1 Y
06
07
0;
01
b1011 ,
b1011 I
b10000010110000000101001010 P
b10101010000 3
b10101010000 X
b1010 -
b1010 H
b1010 2
b1010 J
b11000 4
b11000 O
b10101010000010110000000101001010 8
b10101010000010110000000101001010 \
b10100 !
b10100 A
b10100 M
b10100 [
#845000
b1111 "
b1111 ?
b1111 G
b101 @
b101 U
0)
b1111 <
b1111 C
b1111 W
b101 /
b101 B
b101 K
b1010 0
b1010 L
b1010 T
#900000
1#
#960000
b1000 '
0#
#963000
b0 "
b0 ?
b0 G
1)
b0 <
b0 C
b0 W
b0 =
b0 V
b0 Y
b1010 ,
b1010 I
b10000010100000000110001100 P
b10001010000 3
b10001010000 X
b1100 -
b1100 H
b1100 2
b1100 J
b11100 4
b11100 O
b10001010000010100000000110001100 8
b10001010000010100000000110001100 \
b11000 !
b11000 A
b11000 M
b11000 [
#965000
b1111 "
b1111 ?
b1111 G
b1111 @
b1111 U
0)
b1111 <
b1111 C
b1111 W
b1111 /
b1111 B
b1111 K
b111111111011111010100111110111101010110110111110111011111111 0
b111111111011111010100111110111101010110110111110111011111111 L
b111111111011111010100111110111101010110110111110111011111111 T
#1020000
1#
#1080000
b1001 '
0#
#1083000
b0xxxx "
b0xxxx ?
b0xxxx G
b100 9
b100 N
b100 R
b11 +
b11 Q
b11 Z
b111 =
b111 V
b111 Y
1:
0.
x7
11
b1100 ,
b1100 I
b10001100 P
b10110100000 3
b10110100000 X
b100 -
b100 H
b100000 4
b100000 O
b10110100000000000000000010001100 8
b10110100000000000000000010001100 \
b11100 !
b11100 A
b11100 M
b11100 [
#1085000
bx 0
bx L
bx T
#1140000
1#
#1200000
b1010 '
0#
#1203000
x)
bx <
bx C
bx W
bx "
bx ?
bx G
bx +
bx Q
bx Z
b10 =
b10 V
b10 Y
0:
1.
07
01
b1001 ,
b1001 I
b11000010010000000110101101 P
b10001011000 3
b10001011000 X
b1101 -
b1101 H
b1101 2
b1101 J
b100100 4
b100100 O
b10001011000010010000000110101101 8
b10001011000010010000000110101101 \
b100000 !
b100000 A
b100000 M
b100000 [
#1205000
b1 "
b1 ?
b1 G
b1 @
b1 U
0)
b1 <
b1 C
b1 W
b1 /
b1 B
b1 K
b0 0
b0 L
b0 T
#1260000
1#
#1320000
b1011 '
0#
#1323000
b1111111111111111111111111111111111111111111111111111111111111111 "
b1111111111111111111111111111111111111111111111111111111111111111 ?
b1111111111111111111111111111111111111111111111111111111111111111 G
b1111111111111111111111111111111111111111111111111111111111111111 <
b1111111111111111111111111111111111111111111111111111111111111111 C
b1111111111111111111111111111111111111111111111111111111111111111 W
b110 =
b110 V
b110 Y
b11000010010000000110001100 P
b11001011000 3
b11001011000 X
b1100 -
b1100 H
b1100 2
b1100 J
b101000 4
b101000 O
b11001011000010010000000110001100 8
b11001011000010010000000110001100 \
b100100 !
b100100 A
b100100 M
b100100 [
#1325000
b1110 "
b1110 ?
b1110 G
b1110 <
b1110 C
b1110 W
b1111 0
b1111 L
b1111 T
#1380000
1#
#1440000
b1100 '
0#
#1443000
b0xxx0 "
b0xxx0 ?
b0xxx0 G
bx01 @
bx01 U
b1111111111111111111111111111111111111111111111111111111111111101 9
b1111111111111111111111111111111111111111111111111111111111111101 N
b1111111111111111111111111111111111111111111111111111111111111101 R
1S
b10 +
b10 Q
b10 Z
bx =
bx V
bx Y
1*
x:
0.
x7
x;
x1
b111x1 ,
b111x1 I
b11111111111111111111111101 P
b10111111 3
b10111111 X
b11111 -
b11111 H
b11101 2
b11101 J
b11100 4
b11100 O
b10111111111111111111111111101 8
b10111111111111111111111111101 \
b101000 !
b101000 A
b101000 M
b101000 [
#1445000
bx @
bx U
bx /
bx B
bx K
b0 0
b0 L
b0 T
#1500000
1#
#1560000
b1101 '
0#
#1563000
bx "
bx ?
bx G
x)
bx <
bx C
bx W
b100 9
b100 N
b100 R
0S
b11 +
b11 Q
b11 Z
b111 =
b111 V
b111 Y
0*
1:
0;
11
b1100 ,
b1100 I
b10001100 P
b10110100000 3
b10110100000 X
b100 -
b100 H
b1100 2
b1100 J
b100000 4
b100000 O
b10110100000000000000000010001100 8
b10110100000000000000000010001100 \
b11100 !
b11100 A
b11100 M
b11100 [
#1565000
b0xxx0 "
b0xxx0 ?
b0xxx0 G
0)
b1110 <
b1110 C
b1110 W
b1110 @
b1110 U
b1110 /
b1110 B
b1110 K
bx 0
bx L
bx T
#1620000
1#
#1680000
b1110 '
0#
#1683000
x)
bx <
bx C
bx W
bx "
bx ?
bx G
bx +
bx Q
bx Z
b10 =
b10 V
b10 Y
0:
1.
07
01
b1001 ,
b1001 I
b11000010010000000110101101 P
b10001011000 3
b10001011000 X
b1101 -
b1101 H
b1101 2
b1101 J
b100100 4
b100100 O
b10001011000010010000000110101101 8
b10001011000010010000000110101101 \
b100000 !
b100000 A
b100000 M
b100000 [
#1685000
b10 "
b10 ?
b10 G
b1 @
b1 U
0)
b10 <
b10 C
b10 W
b1 /
b1 B
b1 K
b1 0
b1 L
b1 T
#1740000
1#
#1800000
b1111 '
0#
#1803000
b0 "
b0 ?
b0 G
1)
b0 <
b0 C
b0 W
b110 =
b110 V
b110 Y
b11000010010000000110001100 P
b11001011000 3
b11001011000 X
b1100 -
b1100 H
b1100 2
b1100 J
b101000 4
b101000 O
b11001011000010010000000110001100 8
b11001011000010010000000110001100 \
b100100 !
b100100 A
b100100 M
b100100 [
#1805000
b1101 "
b1101 ?
b1101 G
0)
b1101 <
b1101 C
b1101 W
b1110 0
b1110 L
b1110 T
#1860000
1#
#1920000
b10000 '
0#
#1923000
b0xx0x "
b0xx0x ?
b0xx0x G
bx01 @
bx01 U
b1111111111111111111111111111111111111111111111111111111111111101 9
b1111111111111111111111111111111111111111111111111111111111111101 N
b1111111111111111111111111111111111111111111111111111111111111101 R
1S
b10 +
b10 Q
b10 Z
bx =
bx V
bx Y
1*
x:
0.
x7
x;
x1
b111x1 ,
b111x1 I
b11111111111111111111111101 P
b10111111 3
b10111111 X
b11111 -
b11111 H
b11101 2
b11101 J
b11100 4
b11100 O
b10111111111111111111111111101 8
b10111111111111111111111111101 \
b101000 !
b101000 A
b101000 M
b101000 [
#1925000
bx @
bx U
bx /
bx B
bx K
b0 0
b0 L
b0 T
#1980000
1#
#2040000
b10001 '
0#
#2043000
bx "
bx ?
bx G
x)
bx <
bx C
bx W
b100 9
b100 N
b100 R
0S
b11 +
b11 Q
b11 Z
b111 =
b111 V
b111 Y
0*
1:
0;
11
b1100 ,
b1100 I
b10001100 P
b10110100000 3
b10110100000 X
b100 -
b100 H
b1100 2
b1100 J
b100000 4
b100000 O
b10110100000000000000000010001100 8
b10110100000000000000000010001100 \
b11100 !
b11100 A
b11100 M
b11100 [
#2045000
b0xx0x "
b0xx0x ?
b0xx0x G
0)
b1101 <
b1101 C
b1101 W
b1101 @
b1101 U
b1101 /
b1101 B
b1101 K
bx 0
bx L
bx T
#2100000
1#
#2160000
b10010 '
0#
#2163000
x)
bx <
bx C
bx W
bx "
bx ?
bx G
bx +
bx Q
bx Z
b10 =
b10 V
b10 Y
0:
1.
07
01
b1001 ,
b1001 I
b11000010010000000110101101 P
b10001011000 3
b10001011000 X
b1101 -
b1101 H
b1101 2
b1101 J
b100100 4
b100100 O
b10001011000010010000000110101101 8
b10001011000010010000000110101101 \
b100000 !
b100000 A
b100000 M
b100000 [
#2165000
b11 "
b11 ?
b11 G
b1 @
b1 U
0)
b11 <
b11 C
b11 W
b1 /
b1 B
b1 K
b10 0
b10 L
b10 T
#2220000
1#
#2280000
b10011 '
0#
#2283000
b1 "
b1 ?
b1 G
b1 <
b1 C
b1 W
b110 =
b110 V
b110 Y
b11000010010000000110001100 P
b11001011000 3
b11001011000 X
b1100 -
b1100 H
b1100 2
b1100 J
b101000 4
b101000 O
b11001011000010010000000110001100 8
b11001011000010010000000110001100 \
b100100 !
b100100 A
b100100 M
b100100 [
#2285000
b1100 "
b1100 ?
b1100 G
b1100 <
b1100 C
b1100 W
b1101 0
b1101 L
b1101 T
#2340000
1#
#2400000
b10100 '
0#
#2403000
b0xx00 "
b0xx00 ?
b0xx00 G
bx01 @
bx01 U
b1111111111111111111111111111111111111111111111111111111111111101 9
b1111111111111111111111111111111111111111111111111111111111111101 N
b1111111111111111111111111111111111111111111111111111111111111101 R
1S
b10 +
b10 Q
b10 Z
bx =
bx V
bx Y
1*
x:
0.
x7
x;
x1
b111x1 ,
b111x1 I
b11111111111111111111111101 P
b10111111 3
b10111111 X
b11111 -
b11111 H
b11101 2
b11101 J
b11100 4
b11100 O
b10111111111111111111111111101 8
b10111111111111111111111111101 \
b101000 !
b101000 A
b101000 M
b101000 [
#2405000
bx @
bx U
bx /
bx B
bx K
b0 0
b0 L
b0 T
#2460000
1#
#2520000
b10101 '
0#
#2523000
bx "
bx ?
bx G
x)
bx <
bx C
bx W
b100 9
b100 N
b100 R
0S
b11 +
b11 Q
b11 Z
b111 =
b111 V
b111 Y
0*
1:
0;
11
b1100 ,
b1100 I
b10001100 P
b10110100000 3
b10110100000 X
b100 -
b100 H
b1100 2
b1100 J
b100000 4
b100000 O
b10110100000000000000000010001100 8
b10110100000000000000000010001100 \
b11100 !
b11100 A
b11100 M
b11100 [
#2525000
b0xx00 "
b0xx00 ?
b0xx00 G
0)
b1100 <
b1100 C
b1100 W
b1100 @
b1100 U
b1100 /
b1100 B
b1100 K
bx 0
bx L
bx T
#2580000
1#
#2640000
b10110 '
0#
#2643000
x)
bx <
bx C
bx W
bx "
bx ?
bx G
bx +
bx Q
bx Z
b10 =
b10 V
b10 Y
0:
1.
07
01
b1001 ,
b1001 I
b11000010010000000110101101 P
b10001011000 3
b10001011000 X
b1101 -
b1101 H
b1101 2
b1101 J
b100100 4
b100100 O
b10001011000010010000000110101101 8
b10001011000010010000000110101101 \
b100000 !
b100000 A
b100000 M
b100000 [
#2645000
b100 "
b100 ?
b100 G
b1 @
b1 U
0)
b100 <
b100 C
b100 W
b1 /
b1 B
b1 K
b11 0
b11 L
b11 T
#2700000
1#
#2760000
b10111 '
0#
#2763000
b10 "
b10 ?
b10 G
b10 <
b10 C
b10 W
b110 =
b110 V
b110 Y
b11000010010000000110001100 P
b11001011000 3
b11001011000 X
b1100 -
b1100 H
b1100 2
b1100 J
b101000 4
b101000 O
b11001011000010010000000110001100 8
b11001011000010010000000110001100 \
b100100 !
b100100 A
b100100 M
b100100 [
#2765000
b1011 "
b1011 ?
b1011 G
b1011 <
b1011 C
b1011 W
b1100 0
b1100 L
b1100 T
#2820000
1#
#2880000
b11000 '
0#
#2883000
b0x0xx "
b0x0xx ?
b0x0xx G
bx01 @
bx01 U
b1111111111111111111111111111111111111111111111111111111111111101 9
b1111111111111111111111111111111111111111111111111111111111111101 N
b1111111111111111111111111111111111111111111111111111111111111101 R
1S
b10 +
b10 Q
b10 Z
bx =
bx V
bx Y
1*
x:
0.
x7
x;
x1
b111x1 ,
b111x1 I
b11111111111111111111111101 P
b10111111 3
b10111111 X
b11111 -
b11111 H
b11101 2
b11101 J
b11100 4
b11100 O
b10111111111111111111111111101 8
b10111111111111111111111111101 \
b101000 !
b101000 A
b101000 M
b101000 [
#2885000
bx @
bx U
bx /
bx B
bx K
b0 0
b0 L
b0 T
#2940000
1#
#3000000
b11001 '
0#
#3003000
bx "
bx ?
bx G
x)
bx <
bx C
bx W
b100 9
b100 N
b100 R
0S
b11 +
b11 Q
b11 Z
b111 =
b111 V
b111 Y
0*
1:
0;
11
b1100 ,
b1100 I
b10001100 P
b10110100000 3
b10110100000 X
b100 -
b100 H
b1100 2
b1100 J
b100000 4
b100000 O
b10110100000000000000000010001100 8
b10110100000000000000000010001100 \
b11100 !
b11100 A
b11100 M
b11100 [
#3005000
b0x0xx "
b0x0xx ?
b0x0xx G
0)
b1011 <
b1011 C
b1011 W
b1011 @
b1011 U
b1011 /
b1011 B
b1011 K
bx 0
bx L
bx T
#3060000
1#
#3120000
b11010 '
0#
#3123000
x)
bx <
bx C
bx W
bx "
bx ?
bx G
bx +
bx Q
bx Z
b10 =
b10 V
b10 Y
0:
1.
07
01
b1001 ,
b1001 I
b11000010010000000110101101 P
b10001011000 3
b10001011000 X
b1101 -
b1101 H
b1101 2
b1101 J
b100100 4
b100100 O
b10001011000010010000000110101101 8
b10001011000010010000000110101101 \
b100000 !
b100000 A
b100000 M
b100000 [
#3125000
b101 "
b101 ?
b101 G
b1 @
b1 U
0)
b101 <
b101 C
b101 W
b1 /
b1 B
b1 K
b100 0
b100 L
b100 T
#3180000
1#
#3240000
b11011 '
0#
#3243000
b11 "
b11 ?
b11 G
b11 <
b11 C
b11 W
b110 =
b110 V
b110 Y
b11000010010000000110001100 P
b11001011000 3
b11001011000 X
b1100 -
b1100 H
b1100 2
b1100 J
b101000 4
b101000 O
b11001011000010010000000110001100 8
b11001011000010010000000110001100 \
b100100 !
b100100 A
b100100 M
b100100 [
#3245000
b1010 "
b1010 ?
b1010 G
b1010 <
b1010 C
b1010 W
b1011 0
b1011 L
b1011 T
#3300000
1#
#3360000
b11100 '
0#
#3363000
b0x0x0 "
b0x0x0 ?
b0x0x0 G
bx01 @
bx01 U
b1111111111111111111111111111111111111111111111111111111111111101 9
b1111111111111111111111111111111111111111111111111111111111111101 N
b1111111111111111111111111111111111111111111111111111111111111101 R
1S
b10 +
b10 Q
b10 Z
bx =
bx V
bx Y
1*
x:
0.
x7
x;
x1
b111x1 ,
b111x1 I
b11111111111111111111111101 P
b10111111 3
b10111111 X
b11111 -
b11111 H
b11101 2
b11101 J
b11100 4
b11100 O
b10111111111111111111111111101 8
b10111111111111111111111111101 \
b101000 !
b101000 A
b101000 M
b101000 [
#3365000
bx @
bx U
bx /
bx B
bx K
b0 0
b0 L
b0 T
#3420000
1#
#3480000
b11101 '
0#
#3483000
bx "
bx ?
bx G
x)
bx <
bx C
bx W
b100 9
b100 N
b100 R
0S
b11 +
b11 Q
b11 Z
b111 =
b111 V
b111 Y
0*
1:
0;
11
b1100 ,
b1100 I
b10001100 P
b10110100000 3
b10110100000 X
b100 -
b100 H
b1100 2
b1100 J
b100000 4
b100000 O
b10110100000000000000000010001100 8
b10110100000000000000000010001100 \
b11100 !
b11100 A
b11100 M
b11100 [
#3485000
b0x0x0 "
b0x0x0 ?
b0x0x0 G
0)
b1010 <
b1010 C
b1010 W
b1010 @
b1010 U
b1010 /
b1010 B
b1010 K
bx 0
bx L
bx T
#3540000
1#
#3600000
b11110 '
0#
#3603000
x)
bx <
bx C
bx W
bx "
bx ?
bx G
bx +
bx Q
bx Z
b10 =
b10 V
b10 Y
0:
1.
07
01
b1001 ,
b1001 I
b11000010010000000110101101 P
b10001011000 3
b10001011000 X
b1101 -
b1101 H
b1101 2
b1101 J
b100100 4
b100100 O
b10001011000010010000000110101101 8
b10001011000010010000000110101101 \
b100000 !
b100000 A
b100000 M
b100000 [
#3605000
b110 "
b110 ?
b110 G
b1 @
b1 U
0)
b110 <
b110 C
b110 W
b1 /
b1 B
b1 K
b101 0
b101 L
b101 T
#3660000
1#
#3720000
b11111 '
0#
#3723000
b100 "
b100 ?
b100 G
b100 <
b100 C
b100 W
b110 =
b110 V
b110 Y
b11000010010000000110001100 P
b11001011000 3
b11001011000 X
b1100 -
b1100 H
b1100 2
b1100 J
b101000 4
b101000 O
b11001011000010010000000110001100 8
b11001011000010010000000110001100 \
b100100 !
b100100 A
b100100 M
b100100 [
#3725000
b1001 "
b1001 ?
b1001 G
b1001 <
b1001 C
b1001 W
b1010 0
b1010 L
b1010 T
#3780000
1#
#3840000
b100000 '
0#
#3843000
b0x00x "
b0x00x ?
b0x00x G
bx01 @
bx01 U
b1111111111111111111111111111111111111111111111111111111111111101 9
b1111111111111111111111111111111111111111111111111111111111111101 N
b1111111111111111111111111111111111111111111111111111111111111101 R
1S
b10 +
b10 Q
b10 Z
bx =
bx V
bx Y
1*
x:
0.
x7
x;
x1
b111x1 ,
b111x1 I
b11111111111111111111111101 P
b10111111 3
b10111111 X
b11111 -
b11111 H
b11101 2
b11101 J
b11100 4
b11100 O
b10111111111111111111111111101 8
b10111111111111111111111111101 \
b101000 !
b101000 A
b101000 M
b101000 [
#3845000
bx @
bx U
bx /
bx B
bx K
b0 0
b0 L
b0 T
#3900000
1#
#3960000
b100001 '
0#
#3963000
bx "
bx ?
bx G
x)
bx <
bx C
bx W
b100 9
b100 N
b100 R
0S
b11 +
b11 Q
b11 Z
b111 =
b111 V
b111 Y
0*
1:
0;
11
b1100 ,
b1100 I
b10001100 P
b10110100000 3
b10110100000 X
b100 -
b100 H
b1100 2
b1100 J
b100000 4
b100000 O
b10110100000000000000000010001100 8
b10110100000000000000000010001100 \
b11100 !
b11100 A
b11100 M
b11100 [
#3965000
b0x00x "
b0x00x ?
b0x00x G
0)
b1001 <
b1001 C
b1001 W
b1001 @
b1001 U
b1001 /
b1001 B
b1001 K
bx 0
bx L
bx T
#4020000
1#
#4080000
b100010 '
0#
#4083000
x)
bx <
bx C
bx W
bx "
bx ?
bx G
bx +
bx Q
bx Z
b10 =
b10 V
b10 Y
0:
1.
07
01
b1001 ,
b1001 I
b11000010010000000110101101 P
b10001011000 3
b10001011000 X
b1101 -
b1101 H
b1101 2
b1101 J
b100100 4
b100100 O
b10001011000010010000000110101101 8
b10001011000010010000000110101101 \
b100000 !
b100000 A
b100000 M
b100000 [
#4085000
b111 "
b111 ?
b111 G
b1 @
b1 U
0)
b111 <
b111 C
b111 W
b1 /
b1 B
b1 K
b110 0
b110 L
b110 T
#4140000
1#
#4200000
b100011 '
0#
#4203000
b101 "
b101 ?
b101 G
b101 <
b101 C
b101 W
b110 =
b110 V
b110 Y
b11000010010000000110001100 P
b11001011000 3
b11001011000 X
b1100 -
b1100 H
b1100 2
b1100 J
b101000 4
b101000 O
b11001011000010010000000110001100 8
b11001011000010010000000110001100 \
b100100 !
b100100 A
b100100 M
b100100 [
#4205000
b1000 "
b1000 ?
b1000 G
b1000 <
b1000 C
b1000 W
b1001 0
b1001 L
b1001 T
#4260000
1#
#4320000
b100100 '
0#
#4323000
b0x000 "
b0x000 ?
b0x000 G
bx01 @
bx01 U
b1111111111111111111111111111111111111111111111111111111111111101 9
b1111111111111111111111111111111111111111111111111111111111111101 N
b1111111111111111111111111111111111111111111111111111111111111101 R
1S
b10 +
b10 Q
b10 Z
bx =
bx V
bx Y
1*
x:
0.
x7
x;
x1
b111x1 ,
b111x1 I
b11111111111111111111111101 P
b10111111 3
b10111111 X
b11111 -
b11111 H
b11101 2
b11101 J
b11100 4
b11100 O
b10111111111111111111111111101 8
b10111111111111111111111111101 \
b101000 !
b101000 A
b101000 M
b101000 [
#4325000
bx @
bx U
bx /
bx B
bx K
b0 0
b0 L
b0 T
#4380000
1#
#4440000
b100101 '
0#
#4443000
bx "
bx ?
bx G
x)
bx <
bx C
bx W
b100 9
b100 N
b100 R
0S
b11 +
b11 Q
b11 Z
b111 =
b111 V
b111 Y
0*
1:
0;
11
b1100 ,
b1100 I
b10001100 P
b10110100000 3
b10110100000 X
b100 -
b100 H
b1100 2
b1100 J
b100000 4
b100000 O
b10110100000000000000000010001100 8
b10110100000000000000000010001100 \
b11100 !
b11100 A
b11100 M
b11100 [
#4445000
b0x000 "
b0x000 ?
b0x000 G
0)
b1000 <
b1000 C
b1000 W
b1000 @
b1000 U
b1000 /
b1000 B
b1000 K
bx 0
bx L
bx T
#4500000
1#
#4560000
b100110 '
0#
#4563000
x)
bx <
bx C
bx W
bx "
bx ?
bx G
bx +
bx Q
bx Z
b10 =
b10 V
b10 Y
0:
1.
07
01
b1001 ,
b1001 I
b11000010010000000110101101 P
b10001011000 3
b10001011000 X
b1101 -
b1101 H
b1101 2
b1101 J
b100100 4
b100100 O
b10001011000010010000000110101101 8
b10001011000010010000000110101101 \
b100000 !
b100000 A
b100000 M
b100000 [
#4565000
b1000 "
b1000 ?
b1000 G
b1 @
b1 U
0)
b1000 <
b1000 C
b1000 W
b1 /
b1 B
b1 K
b111 0
b111 L
b111 T
#4620000
1#
#4680000
b100111 '
0#
#4683000
b110 "
b110 ?
b110 G
b110 <
b110 C
b110 W
b110 =
b110 V
b110 Y
b11000010010000000110001100 P
b11001011000 3
b11001011000 X
b1100 -
b1100 H
b1100 2
b1100 J
b101000 4
b101000 O
b11001011000010010000000110001100 8
b11001011000010010000000110001100 \
b100100 !
b100100 A
b100100 M
b100100 [
#4685000
b111 "
b111 ?
b111 G
b111 <
b111 C
b111 W
b1000 0
b1000 L
b1000 T
#4740000
1#
#4800000
b101000 '
0#
#4803000
b0xxx "
b0xxx ?
b0xxx G
bx01 @
bx01 U
b1111111111111111111111111111111111111111111111111111111111111101 9
b1111111111111111111111111111111111111111111111111111111111111101 N
b1111111111111111111111111111111111111111111111111111111111111101 R
1S
b10 +
b10 Q
b10 Z
bx =
bx V
bx Y
1*
x:
0.
x7
x;
x1
b111x1 ,
b111x1 I
b11111111111111111111111101 P
b10111111 3
b10111111 X
b11111 -
b11111 H
b11101 2
b11101 J
b11100 4
b11100 O
b10111111111111111111111111101 8
b10111111111111111111111111101 \
b101000 !
b101000 A
b101000 M
b101000 [
#4805000
bx @
bx U
bx /
bx B
bx K
b0 0
b0 L
b0 T
#4860000
1#
#4920000
b101001 '
0#
#4923000
bx "
bx ?
bx G
x)
bx <
bx C
bx W
b100 9
b100 N
b100 R
0S
b11 +
b11 Q
b11 Z
b111 =
b111 V
b111 Y
0*
1:
0;
11
b1100 ,
b1100 I
b10001100 P
b10110100000 3
b10110100000 X
b100 -
b100 H
b1100 2
b1100 J
b100000 4
b100000 O
b10110100000000000000000010001100 8
b10110100000000000000000010001100 \
b11100 !
b11100 A
b11100 M
b11100 [
#4925000
b0xxx "
b0xxx ?
b0xxx G
0)
b111 <
b111 C
b111 W
b111 @
b111 U
b111 /
b111 B
b111 K
bx 0
bx L
bx T
#4980000
1#
#5040000
b101010 '
0#
#5043000
x)
bx <
bx C
bx W
bx "
bx ?
bx G
bx +
bx Q
bx Z
b10 =
b10 V
b10 Y
0:
1.
07
01
b1001 ,
b1001 I
b11000010010000000110101101 P
b10001011000 3
b10001011000 X
b1101 -
b1101 H
b1101 2
b1101 J
b100100 4
b100100 O
b10001011000010010000000110101101 8
b10001011000010010000000110101101 \
b100000 !
b100000 A
b100000 M
b100000 [
#5045000
b1001 "
b1001 ?
b1001 G
b1 @
b1 U
0)
b1001 <
b1001 C
b1001 W
b1 /
b1 B
b1 K
b1000 0
b1000 L
b1000 T
#5100000
1#
#5160000
b101011 '
0#
#5163000
b111 "
b111 ?
b111 G
b111 <
b111 C
b111 W
b110 =
b110 V
b110 Y
b11000010010000000110001100 P
b11001011000 3
b11001011000 X
b1100 -
b1100 H
b1100 2
b1100 J
b101000 4
b101000 O
b11001011000010010000000110001100 8
b11001011000010010000000110001100 \
b100100 !
b100100 A
b100100 M
b100100 [
